[
	{
		"fa": "code",
		"description": "The bulk of my experience is in the Microsoft stack: C# .NET, SQL Server & IIS. I've recently branched out into JavaScript and front-end frameworks such as ReactJS and Node.js. Ultimately, though, it's not the technology that matters: it's the problem being solved. Adapting to and learning from a compelling challenge is what I enjoy most.",
		"url": "/#/projects"
	},
	{
		"fa": "cutlery",
		"description": "When I'm not coding, I'm usually cooking. On a basic level, food is comfort; sharing a meal with others is a simple kindness that never ceases to bring me joy. There is also a layer of science to cooking that is both fun to explore and interesting to experiment with."
	},
	{
		"fa": "pencil",
		"description": "I enjoy writing, but don't get much of an opportunity to practice it. In an effort to fix that, I recently started a blog that I hope to update on a regular basis. My goal is to give back -- to teach what I've learned in an approachable, accessible way.",
		"url": "/blog"
	}
]